1,52
1,73
1,234
1,265
2,156
2,263
3,156
3,263
3,295
4,70
4,201
5,194
5,252
6,46
7,145
7,188
8,124
8,264
9,31
9,232
10,95
10,128
11,28
11,83
11,94
11,104
11,163
11,212
11,249
12,56
12,257
13,156
13,157
13,167
13,225
13,250
13,279
14,92
14,167
15,78
15,269
16,91
16,173
17,74
17,110
17,293
18,186
18,193
19,97
20,65
20,217
21,67
21,269
22,47
22,111
23,41
23,157
24,156
24,164
25,161
25,255
26,260
26,274
27,79
27,201
28,11
28,107
28,162
28,192
29,84
29,157
30,176
30,190
31,9
31,303
32,70
32,204
33,36
33,164
34,100
34,119
35,245
36,33
36,289
37,158
37,301
38,58
38,81
39,128
39,145
40,47
40,89
40,139
40,170
41,23
41,42
41,216
41,253
42,41
42,120
42,183
42,292
43,79
43,183
43,219
43,289
44,161
44,166
45,207
45,243
46,6
46,50
46,53
47,22
47,40
48,126
48,250
49,87
49,151
49,197
50,46
51,103
51,215
52,1
52,265
53,46
53,214
54,55
54,56
55,54
55,245
56,12
56,54
57,187
58,38
58,119
59,240
59,258
60,126
60,151
61,171
61,238
62,168
62,280
63,203
63,219
64,106
64,135
65,20
65,97
66,67
66,85
67,21
67,66
68,158
68,256
69,86
69,106
70,4
70,32
71,172
71,297
72,73
72,286
73,1
73,72
73,182
74,17
74,99
74,122
74,138
74,287
74,293
75,210
75,222
76,181
76,296
77,93
77,124
78,15
78,270
79,27
79,43
80,205
80,231
81,38
82,163
82,193
83,11
83,193
84,29
84,136
84,148
85,66
85,129
86,69
86,152
87,49
87,255
87,279
87,285
88,256
89,40
89,145
89,170
89,277
90,104
90,145
91,16
91,109
92,14
92,145
93,77
93,165
93,288
94,11
94,254
94,282
94,290
95,10
95,123
95,160
95,224
96,195
96,287
97,19
97,65
98,173
98,211
99,74
99,122
99,236
100,34
100,111
101,110
101,227
102,259
102,277
103,51
103,109
104,11
104,90
105,177
105,196
106,64
106,69
107,28
107,133
107,192
107,197
107,273
107,285
108,141
108,265
109,91
109,103
110,17
110,101
110,209
110,265
111,22
111,100
112,181
112,196
113,246
113,298
114,140
115,178
115,184
115,291
116,117
116,118
116,132
117,116
117,118
118,116
118,117
119,34
119,58
120,42
120,238
121,261
122,74
122,99
122,186
123,95
123,145
124,8
124,77
125,134
125,271
126,48
126,60
126,223
126,259
127,186
127,226
128,10
128,39
129,85
129,268
130,131
130,132
131,130
131,190
132,116
132,130
133,107
133,146
134,125
134,220
135,64
135,171
136,84
136,191
136,279
137,206
137,298
138,74
139,40
139,264
140,114
140,237
141,108
141,213
142,290
142,297
143,159
143,206
144,207
144,282
145,7
145,39
145,89
145,90
145,92
145,123
145,223
146,133
146,236
147,150
147,283
148,84
148,279
149,162
149,208
150,147
150,227
151,49
151,60
151,197
151,259
152,86
153,154
153,247
154,153
154,230
154,275
155,225
155,284
156,2
156,3
156,13
156,24
156,167
157,13
157,23
157,29
157,233
158,37
158,68
159,143
159,278
160,95
160,266
161,25
161,44
162,28
162,149
163,11
163,82
164,24
164,33
164,244
164,247
165,93
166,44
166,263
167,13
167,14
167,156
167,188
168,62
168,179
168,214
169,240
170,40
170,89
171,61
171,135
172,71
172,282
173,16
173,98
174,253
175,253
176,30
176,234
177,105
177,239
178,115
178,202
179,168
179,180
180,179
180,199
181,76
181,112
181,286
182,73
182,194
183,42
183,43
184,115
184,199
185,237
185,281
186,18
186,122
186,127
186,208
187,57
187,232
188,7
188,167
190,30
190,131
191,136
191,245
192,28
192,107
192,197
192,212
192,259
192,277
193,18
193,82
193,83
193,218
193,278
194,5
194,182
195,96
195,205
196,105
196,112
197,49
197,107
197,151
197,192
198,272
198,273
199,180
199,184
200,270
200,289
201,4
201,27
201,284
201,292
202,178
202,282
203,63
203,217
204,32
204,247
205,80
205,195
206,137
206,143
207,45
207,144
208,149
208,186
209,110
209,242
210,75
210,235
210,291
211,98
211,275
212,11
212,192
213,141
214,53
214,168
215,51
215,301
216,41
216,276
217,20
217,203
218,193
218,283
219,43
219,63
220,134
220,222
221,239
221,294
222,75
222,220
223,126
223,145
224,95
224,260
225,13
225,155
225,262
225,276
225,295
226,127
226,296
227,101
227,150
228,295
229,236
229,273
230,154
230,241
231,80
231,300
232,9
232,187
233,157
233,279
234,1
234,176
235,210
235,251
236,99
236,146
236,229
237,140
237,185
238,61
238,120
239,177
239,221
240,59
240,169
241,230
241,301
242,209
242,265
243,45
244,164
244,295
245,35
245,55
245,191
245,272
246,113
246,281
247,153
247,164
247,204
247,289
248,273
248,285
249,11
249,254
250,13
250,48
251,235
251,252
252,5
252,251
253,41
253,174
253,175
254,94
254,249
255,25
255,87
256,68
256,88
257,12
257,258
258,59
258,257
259,102
259,126
259,151
259,192
260,26
260,224
261,121
261,302
262,225
263,2
263,3
263,166
264,8
264,139
265,1
265,52
265,108
265,110
265,242
266,160
266,303
267,268
268,129
268,267
269,15
269,21
270,78
270,200
271,125
272,198
272,245
273,107
273,198
273,229
273,248
274,26
275,154
275,211
276,216
276,225
277,89
277,102
277,192
278,159
278,193
279,13
279,87
279,136
279,148
279,233
279,285
280,62
281,185
281,246
282,94
282,144
282,172
282,202
283,147
283,218
284,155
284,201
284,292
285,87
285,107
285,248
285,279
286,72
286,181
287,74
287,96
288,93
288,302
289,36
289,43
289,200
289,247
290,94
290,142
291,115
291,210
292,42
292,201
292,284
293,17
293,74
294,221
295,3
295,225
295,228
295,244
296,76
296,226
297,71
297,142
298,113
298,137
299,300
300,231
300,299
301,37
301,215
301,241
302,261
302,288
303,31
303,266
